Bootcamp 6: Area plots
…
rm(list=ls())

load('01-bevoelkerung-clean.RData')

jx <- df %>% 
  filter(!alterv05kurz %in% c('0-4', '5-9', '10-14', '15-19')) %>% # U18-jhrige rausfiltern
  group_by(stichtagdatjahr,geblandhistlang, ziv2lang) %>% # wir gruppieren dan den Aggregationsvariablen
  summarise(n_grp=n()) %>% # Berechnung der ANZAHL Personen mit Zivstatus X in Land X im Jahr X
  mutate(n_total=sum(n_grp), # Total berechnen; 100% = Alle Personen aus Land X im Jahr X
         perc=n_grp/n_total) %>%  # Anteile berechnen
  ungroup
jx

## # A tibble: 2,623 x 6
##    stichtagdatjahr geblandhistlang ziv2lang    n_grp n_total   perc
##              <int> <chr>           <chr>       <int>   <int>  <dbl>
##  1            1993 Afrika          Geschieden    395    2827 0.140 
##  2            1993 Afrika          Ledig         641    2827 0.227 
##  3            1993 Afrika          Verheiratet  1740    2827 0.615 
##  4            1993 Afrika          Verwitwet      51    2827 0.0180
##  5            1993 Amerika         Geschieden    350    2998 0.117 
##  6            1993 Amerika         Ledig         771    2998 0.257 
##  7            1993 Amerika         Verheiratet  1817    2998 0.606 
##  8            1993 Amerika         Verwitwet      60    2998 0.0200
##  9            1993 Asien           Geschieden    473    5582 0.0847
## 10            1993 Asien           Ledig        1402    5582 0.251 
## # ... with 2,613 more rows
…
